{"frames": [

{
	"filename": "incorrect-orientation-message",
	"frame": {"x":2,"y":2,"w":960,"h":1280},
	"rotated": false,
	"trimmed": false,
	"spriteSourceSize": {"x":0,"y":0,"w":960,"h":1280},
	"sourceSize": {"w":960,"h":1280}
},
{
	"filename": "obstacle-medium-cup",
	"frame": {"x":447,"y":1643,"w":102,"h":106},
	"rotated": false,
	"trimmed": false,
	"spriteSourceSize": {"x":0,"y":0,"w":102,"h":106},
	"sourceSize": {"w":102,"h":106}
},
{
	"filename": "obstacle-small-cup",
	"frame": {"x":375,"y":1934,"w":74,"h":88},
	"rotated": false,
	"trimmed": false,
	"spriteSourceSize": {"x":0,"y":0,"w":74,"h":88},
	"sourceSize": {"w":74,"h":88}
},
{
	"filename": "obstacle-top-hat",
	"frame": {"x":839,"y":1397,"w":174,"h":142},
	"rotated": false,
	"trimmed": true,
	"spriteSourceSize": {"x":0,"y":4,"w":174,"h":142},
	"sourceSize": {"w":180,"h":146}
},
{
	"filename": "platform-00",
	"frame": {"x":2,"y":1284,"w":960,"h":111},
	"rotated": false,
	"trimmed": false,
	"spriteSourceSize": {"x":0,"y":0,"w":960,"h":111},
	"sourceSize": {"w":960,"h":111}
},
{
	"filename": "player-fall-back00",
	"frame": {"x":281,"y":1541,"w":164,"h":135},
	"rotated": false,
	"trimmed": true,
	"spriteSourceSize": {"x":57,"y":0,"w":164,"h":135},
	"sourceSize": {"w":229,"h":140}
},
{
	"filename": "player-fall-back01",
	"frame": {"x":608,"y":1397,"w":229,"h":126},
	"rotated": false,
	"trimmed": true,
	"spriteSourceSize": {"x":0,"y":14,"w":229,"h":126},
	"sourceSize": {"w":229,"h":140}
},
{
	"filename": "player-jump00",
	"frame": {"x":447,"y":1509,"w":128,"h":132},
	"rotated": false,
	"trimmed": true,
	"spriteSourceSize": {"x":16,"y":0,"w":128,"h":132},
	"sourceSize": {"w":160,"h":132}
},
{
	"filename": "player-run00",
	"frame": {"x":2,"y":1691,"w":136,"h":148},
	"rotated": false,
	"trimmed": true,
	"spriteSourceSize": {"x":17,"y":0,"w":136,"h":148},
	"sourceSize": {"w":164,"h":150}
},
{
	"filename": "player-run01",
	"frame": {"x":2,"y":1541,"w":137,"h":148},
	"rotated": false,
	"trimmed": true,
	"spriteSourceSize": {"x":17,"y":0,"w":137,"h":148},
	"sourceSize": {"w":164,"h":150}
},
{
	"filename": "player-run02",
	"frame": {"x":140,"y":1841,"w":137,"h":147},
	"rotated": false,
	"trimmed": true,
	"spriteSourceSize": {"x":17,"y":1,"w":137,"h":147},
	"sourceSize": {"w":164,"h":150}
},
{
	"filename": "player-run03",
	"frame": {"x":141,"y":1541,"w":138,"h":147},
	"rotated": false,
	"trimmed": true,
	"spriteSourceSize": {"x":17,"y":1,"w":138,"h":147},
	"sourceSize": {"w":164,"h":150}
},
{
	"filename": "player-run04",
	"frame": {"x":278,"y":1690,"w":137,"h":147},
	"rotated": false,
	"trimmed": true,
	"spriteSourceSize": {"x":17,"y":1,"w":137,"h":147},
	"sourceSize": {"w":164,"h":150}
},
{
	"filename": "player-run05",
	"frame": {"x":2,"y":1841,"w":136,"h":148},
	"rotated": false,
	"trimmed": true,
	"spriteSourceSize": {"x":17,"y":0,"w":136,"h":148},
	"sourceSize": {"w":164,"h":150}
},
{
	"filename": "player-run06",
	"frame": {"x":140,"y":1691,"w":136,"h":148},
	"rotated": false,
	"trimmed": true,
	"spriteSourceSize": {"x":17,"y":0,"w":136,"h":148},
	"sourceSize": {"w":164,"h":150}
},
{
	"filename": "player-trip-land00",
	"frame": {"x":577,"y":1525,"w":229,"h":126},
	"rotated": false,
	"trimmed": true,
	"spriteSourceSize": {"x":0,"y":14,"w":229,"h":126},
	"sourceSize": {"w":229,"h":140}
},
{
	"filename": "player-tripping00",
	"frame": {"x":808,"y":1541,"w":164,"h":135},
	"rotated": false,
	"trimmed": true,
	"spriteSourceSize": {"x":57,"y":0,"w":164,"h":135},
	"sourceSize": {"w":229,"h":140}
},
{
	"filename": "shock-00-00",
	"frame": {"x":964,"y":2,"w":47,"h":48},
	"rotated": false,
	"trimmed": true,
	"spriteSourceSize": {"x":25,"y":24,"w":47,"h":48},
	"sourceSize": {"w":96,"h":96}
},
{
	"filename": "shock-00-01",
	"frame": {"x":279,"y":1839,"w":94,"h":93},
	"rotated": false,
	"trimmed": true,
	"spriteSourceSize": {"x":1,"y":2,"w":94,"h":93},
	"sourceSize": {"w":96,"h":96}
},
{
	"filename": "shock-01-00",
	"frame": {"x":964,"y":52,"w":47,"h":48},
	"rotated": false,
	"trimmed": true,
	"spriteSourceSize": {"x":25,"y":24,"w":47,"h":48},
	"sourceSize": {"w":96,"h":96}
},
{
	"filename": "shock-01-01",
	"frame": {"x":279,"y":1934,"w":94,"h":93},
	"rotated": false,
	"trimmed": true,
	"spriteSourceSize": {"x":1,"y":2,"w":94,"h":93},
	"sourceSize": {"w":96,"h":96}
},
{
	"filename": "shock-02-00",
	"frame": {"x":964,"y":102,"w":47,"h":48},
	"rotated": false,
	"trimmed": true,
	"spriteSourceSize": {"x":25,"y":24,"w":47,"h":48},
	"sourceSize": {"w":96,"h":96}
},
{
	"filename": "shock-02-01",
	"frame": {"x":375,"y":1839,"w":94,"h":93},
	"rotated": false,
	"trimmed": true,
	"spriteSourceSize": {"x":1,"y":2,"w":94,"h":93},
	"sourceSize": {"w":96,"h":96}
},
{
	"filename": "speed-msg-accel",
	"frame": {"x":2,"y":1453,"w":564,"h":54},
	"rotated": false,
	"trimmed": true,
	"spriteSourceSize": {"x":19,"y":27,"w":564,"h":54},
	"sourceSize": {"w":600,"h":108}
},
{
	"filename": "speed-msg-decel",
	"frame": {"x":2,"y":1397,"w":604,"h":54},
	"rotated": false,
	"trimmed": true,
	"spriteSourceSize": {"x":59,"y":27,"w":604,"h":54},
	"sourceSize": {"w":720,"h":108}
}],
"meta": {
	"app": "https://www.codeandweb.com/texturepacker",
	"version": "1.0",
	"image": "images.png",
	"format": "RGBA8888",
	"size": {"w":1024,"h":2048},
	"scale": "1",
	"smartupdate": "$TexturePacker:SmartUpdate:52e19b088c7a2c9e52831802e3cda01e:61a0ad5458a1bac8a221d44c5ef5abc2:9be8c185d95a5be4a06ec0067a3d8380$"
}
}
